<svg width="16" xmlns="http://www.w3.org/2000/svg" height="16" viewBox="0 0 16 16">
 <path fill="#232629" d="m2 1038.36v12h12v-12zm1 1h4v1h1v-1h5v10h-10zm5 1v1h1v-1zm0 1h-1v1h1zm0 1v1h1v-1zm0 1h-1v1h1zm0 1v1h1v-1zm0 1h-1v2h2v-1h-1z" transform="translate(0-1036.36)"/>
</svg>
